{
  "promo": 2025,
  "semester": 1,
  "projects": [
    {
      "module": "Internship",
      "project": "NOOB",
      "start": "2021-05-03",
      "end": "2021-05-16",
      "bttf": false
    },
    {
      "module": "C Graphical Programming",
      "project": "MyDefender",
      "start": "2021-02-22",
      "end": "2021-03-21",
      "bttf": false
    },
    {
      "module": "C Graphical Programming",
      "project": "MyWorld",
      "start": "2021-02-22",
      "end": "2021-03-21",
      "bttf": false
    },
    {
      "module": "C Graphical Programming",
      "project": "MyRPG",
      "start": "2021-03-22",
      "end": "2021-05-09",
      "bttf": false
    },
    {
      "module": "C Graphical Programming",
      "project": "Back To The Future - MyWorld",
      "start": "2021-04-19",
      "end": "2021-04-25",
      "bttf": true
    },
    {
      "module": "C Graphical Programming",
      "project": "Back To The Future - MyDefender",
      "start": "2021-04-19",
      "end": "2021-04-25",
      "bttf": true
    },
    {
      "module": "C Graphical Programming",
      "project": "Back To The Future - MyWorld",
      "start": "2021-05-31",
      "end": "2021-06-06",
      "bttf": true
    },
    {
      "module": "C Graphical Programming",
      "project": "Back To The Future - MyDefender",
      "start": "2021-05-31",
      "end": "2021-06-06",
      "bttf": true
    },
    {
      "module": "Elementary programming in C (Part I)",
      "project": "Matchstick",
      "start": "2021-03-08",
      "end": "2021-03-28",
      "bttf": false
    },
    {
      "module": "Elementary programming in C (Part I)",
      "project": "Dante's star",
      "start": "2021-03-29",
      "end": "2021-04-18",
      "bttf": false
    },
    {
      "module": "Elementary programming in C (Part I)",
      "project": "Back To The Future - Dante's star",
      "start": "2021-04-19",
      "end": "2021-04-25",
      "bttf": true
    },
    {
      "module": "Elementary programming in C (Part I)",
      "project": "Back To The Future - Matchstick",
      "start": "2021-04-19",
      "end": "2021-04-25",
      "bttf": true
    },
    {
      "module": "Elementary programming in C (Part I)",
      "project": "Back To The Future - Dante's star",
      "start": "2021-05-31",
      "end": "2021-06-06",
      "bttf": true
    },
    {
      "module": "Elementary programming in C (Part I)",
      "project": "Back To The Future - Matchstick",
      "start": "2021-05-31",
      "end": "2021-06-06",
      "bttf": true
    },
    {
      "module": "Elementary programming in C (Part II)",
      "project": "Corewar",
      "start": "2021-04-26",
      "end": "2021-05-23",
      "bttf": false
    },
    {
      "module": "Elementary programming in C (Part II)",
      "project": "Akinatek",
      "start": "2021-04-26",
      "end": "2021-05-23",
      "bttf": false
    },
    {
      "module": "FR - Écrits professionnels",
      "project": "\"Le mode d'emploi : prendre le lecteur par la main\"",
      "start": "2021-02-15",
      "end": "2021-02-28",
      "bttf": false
    },
    {
      "module": "FR - Écrits professionnels",
      "project": "\"Faire préciser\"",
      "start": "2021-03-08",
      "end": "2021-03-21",
      "bttf": false
    },
    {
      "module": "FR - Écrits professionnels",
      "project": "\"La lettre de vente : informer, argumenter, valoriser\"",
      "start": "2021-03-29",
      "end": "2021-04-11",
      "bttf": false
    },
    {
      "module": "FR - Écrits professionnels",
      "project": "Back To The Future - Mode d'emploi",
      "start": "2021-04-19",
      "end": "2021-04-25",
      "bttf": true
    },
    {
      "module": "FR - Écrits professionnels",
      "project": "Back To The Future - Faire préciser",
      "start": "2021-04-19",
      "end": "2021-04-25",
      "bttf": true
    },
    {
      "module": "FR - Écrits professionnels",
      "project": "Back To The Future - Lettre de vente",
      "start": "2021-05-31",
      "end": "2021-06-06",
      "bttf": true
    },
    {
      "module": "Introduction to A.I.",
      "project": "Need4Stek",
      "start": "2021-04-12",
      "end": "2021-05-16",
      "bttf": false
    },
    {
      "module": "Introduction to A.I.",
      "project": "Back To The Future - Need4Stek",
      "start": "2021-05-31",
      "end": "2021-06-06",
      "bttf": true
    },
    {
      "module": "Introduction to DevOps",
      "project": "Popeye",
      "start": "2021-03-01",
      "end": "2021-03-21",
      "bttf": false
    },
    {
      "module": "Introduction to Web Development",
      "project": "EPyTodo",
      "start": "2021-03-22",
      "end": "2021-04-11",
      "bttf": false
    },
    {
      "module": "Introduction to Web Development",
      "project": "Back To The Future - EPyTodo",
      "start": "2021-04-19",
      "end": "2021-04-25",
      "bttf": true
    },
    {
      "module": "Introduction to Web Development",
      "project": "Back To The Future - EPyTodo",
      "start": "2021-05-31",
      "end": "2021-06-06",
      "bttf": true
    },
    {
      "module": "Mathematics",
      "project": "106bombyx",
      "start": "2021-02-22",
      "end": "2021-03-07",
      "bttf": false
    },
    {
      "module": "Mathematics",
      "project": "107transfer",
      "start": "2021-03-08",
      "end": "2021-03-21",
      "bttf": false
    },
    {
      "module": "Mathematics",
      "project": "108trigo",
      "start": "2021-03-22",
      "end": "2021-04-04",
      "bttf": false
    },
    {
      "module": "Mathematics",
      "project": "109titration",
      "start": "2021-04-05",
      "end": "2021-04-18",
      "bttf": false
    },
    {
      "module": "Mathematics",
      "project": "110borwein",
      "start": "2021-04-19",
      "end": "2021-05-02",
      "bttf": false
    },
    {
      "module": "Shell Programming",
      "project": "MiniShell 2",
      "start": "2021-04-05",
      "end": "2021-05-02",
      "bttf": false
    },
    {
      "module": "Shell Programming",
      "project": "42sh",
      "start": "2021-05-03",
      "end": "2021-05-30",
      "bttf": false
    },
    {
      "module": "Shell Programming",
      "project": "Back To The Future - MiniShell 2",
      "start": "2021-05-31",
      "end": "2021-06-06",
      "bttf": true
    },
    {
      "module": "Unix System programming",
      "project": "my_sokoban",
      "start": "2021-02-15",
      "end": "2021-03-07",
      "bttf": false
    },
    {
      "module": "Unix System programming",
      "project": "Back To The Future - my_sokoban",
      "start": "2021-04-19",
      "end": "2021-04-25",
      "bttf": true
    },
    {
      "module": "Unix System programming",
      "project": "Back To The Future - my_sokoban",
      "start": "2021-05-31",
      "end": "2021-06-06",
      "bttf": true
    }
  ]
}
