{
  "promo": 2021,
  "semester": 9,
  "projects": [
    {
      "module": "Algorithm - Introduction",
      "project": "Project",
      "start": "2020-10-29",
      "end": "2020-11-15",
      "bttf": false
    },
    {
      "module": "Artificial Intelligence Introduction",
      "project": "Project",
      "start": "2020-11-26",
      "end": "2020-12-27",
      "bttf": false
    },
    {
      "module": "Container orchestrator [remotely]",
      "project": "Container orchestrator project",
      "start": "2020-10-29",
      "end": "2020-11-22",
      "bttf": false
    },
    {
      "module": "Cryptography",
      "project": "Project",
      "start": "2020-11-05",
      "end": "2020-12-04",
      "bttf": false
    },
    {
      "module": "Cryptography",
      "project": "Project",
      "start": "2020-10-08",
      "end": "2020-11-06",
      "bttf": false
    },
    {
      "module": "Cybersécu - gérer la sécurité applicative [Rennes]",
      "project": "Projet",
      "start": "2020-12-05",
      "end": "2020-12-19",
      "bttf": false
    },
    {
      "module": "De l'introduction à la réalisation d'un projet de Data Science [Nantes]",
      "project": "2 projets finaux (computer vision + projet au choix)",
      "start": "2020-12-17",
      "end": "2021-01-31",
      "bttf": false
    },
    {
      "module": "DevOps I",
      "project": "Project",
      "start": "2020-09-10",
      "end": "2020-10-09",
      "bttf": false
    },
    {
      "module": "DevOps II",
      "project": "Project",
      "start": "2020-12-17",
      "end": "2021-01-22",
      "bttf": false
    },
    {
      "module": "Entrepreneurship –The Cantillon",
      "project": "Business Model",
      "start": "2020-10-03",
      "end": "2020-10-03",
      "bttf": false
    },
    {
      "module": "Flutter Mobile Application",
      "project": "Project",
      "start": "2020-09-17",
      "end": "2020-11-08",
      "bttf": false
    },
    {
      "module": "Flutter Mobile Application",
      "project": "Project",
      "start": "2020-11-05",
      "end": "2021-01-03",
      "bttf": false
    },
    {
      "module": "Free Project",
      "project": "Project",
      "start": "2020-09-01",
      "end": "2021-04-30",
      "bttf": false
    },
    {
      "module": "GO [Bordeaux] ",
      "project": "Tech 5 : Project GO",
      "start": "2021-02-04",
      "end": "2021-02-18",
      "bttf": false
    },
    {
      "module": "Game design I",
      "project": "Project",
      "start": "2020-11-05",
      "end": "2020-11-27",
      "bttf": false
    },
    {
      "module": "Game design I",
      "project": "Project",
      "start": "2020-09-17",
      "end": "2020-10-09",
      "bttf": false
    },
    {
      "module": "Game design II",
      "project": "Project",
      "start": "2021-02-04",
      "end": "2021-02-26",
      "bttf": false
    },
    {
      "module": "Graphs algorithms and matching",
      "project": "Project",
      "start": "2020-12-03",
      "end": "2020-12-20",
      "bttf": false
    },
    {
      "module": "IoT",
      "project": "Project",
      "start": "2020-11-12",
      "end": "2021-01-22",
      "bttf": false
    },
    {
      "module": "JavaScript Full Stack Development",
      "project": "Project",
      "start": "2020-11-12",
      "end": "2021-01-03",
      "bttf": false
    },
    {
      "module": "JavaScript Full Stack Development",
      "project": "Project",
      "start": "2020-09-10",
      "end": "2020-11-01",
      "bttf": false
    },
    {
      "module": "Kernel Programming I",
      "project": "Project One",
      "start": "2020-10-29",
      "end": "2020-12-18",
      "bttf": false
    },
    {
      "module": "Mieux se connaître et comprendre les autres par le modèle de l'Ennéagramme",
      "project": "Travail préparatoire",
      "start": "2020-09-01",
      "end": "2020-10-07",
      "bttf": false
    },
    {
      "module": "Mieux se connaître et comprendre les autres par le modèle de l'Ennéagramme",
      "project": "Travail préparatoire",
      "start": "2020-09-01",
      "end": "2021-02-10",
      "bttf": false
    },
    {
      "module": "Mobile Hybrid",
      "project": "Project",
      "start": "2020-12-03",
      "end": "2021-02-05",
      "bttf": false
    },
    {
      "module": "Progressive Web Apps",
      "project": "Project",
      "start": "2021-02-25",
      "end": "2021-04-23",
      "bttf": false
    },
    {
      "module": "Progressive Web Apps",
      "project": "Project",
      "start": "2020-10-08",
      "end": "2020-12-04",
      "bttf": false
    },
    {
      "module": "Quelles solutions pour la résilience des PME ? [Rennes]",
      "project": "projet",
      "start": "2021-02-20",
      "end": "2021-03-06",
      "bttf": false
    },
    {
      "module": "React Native Mobile Development",
      "project": "Project",
      "start": "2020-10-01",
      "end": "2020-11-22",
      "bttf": false
    },
    {
      "module": "Reverse Engineering & Cracking I",
      "project": "Project",
      "start": "2020-09-17",
      "end": "2020-10-16",
      "bttf": false
    },
    {
      "module": "Reverse Engineering & Cracking II",
      "project": "Project",
      "start": "2021-02-11",
      "end": "2021-03-12",
      "bttf": false
    },
    {
      "module": "Shape your internship ! ",
      "project": "Travail préparatoire",
      "start": "2020-09-01",
      "end": "2020-10-28",
      "bttf": false
    },
    {
      "module": "Shape your internship ! ",
      "project": "Travail préparatoire",
      "start": "2020-09-01",
      "end": "2020-11-11",
      "bttf": false
    },
    {
      "module": "Start-Up : Survivre à la premiere année [Rennes]",
      "project": "Mise en place un tableau de bord Start-Up",
      "start": "2021-02-06",
      "end": "2021-02-20",
      "bttf": false
    },
    {
      "module": "UI & UX",
      "project": "Project",
      "start": "2021-01-07",
      "end": "2021-01-22",
      "bttf": false
    },
    {
      "module": "Vizualisation of Massive Data",
      "project": "Project",
      "start": "2021-01-14",
      "end": "2021-01-31",
      "bttf": false
    },
    {
      "module": "Vizualisation of Massive Data",
      "project": "Project",
      "start": "2021-01-07",
      "end": "2021-01-24",
      "bttf": false
    },
    {
      "module": "Web Security",
      "project": "Project",
      "start": "2020-11-12",
      "end": "2020-12-11",
      "bttf": false
    },
    {
      "module": "Web Security",
      "project": "Project",
      "start": "2020-10-01",
      "end": "2020-10-30",
      "bttf": false
    },
    {
      "module": "EIP / Epitech Innovative Project",
      "project": "EIP - Groupes de projet",
      "start": "2020-08-28",
      "end": "2021-02-24",
      "bttf": false
    },
    {
      "module": "EIP / Epitech Innovative Project",
      "project": "Groupe A",
      "start": "2020-08-28",
      "end": "2021-02-24",
      "bttf": false
    },
    {
      "module": "EIP / Epitech Innovative Project",
      "project": "Groupe B",
      "start": "2020-08-28",
      "end": "2021-02-24",
      "bttf": false
    },
    {
      "module": "EIP / Epitech Innovative Project",
      "project": "Groupe C",
      "start": "2020-08-28",
      "end": "2021-02-24",
      "bttf": false
    },
    {
      "module": "Management of Innovation",
      "project": "Innovation file : your case",
      "start": "2020-12-18",
      "end": "2021-01-17",
      "bttf": false
    },
    {
      "module": "Management of Innovation",
      "project": "Innovation file : your case",
      "start": "2020-12-17",
      "end": "2021-01-17",
      "bttf": false
    }
  ]
}
